{
    "key": "group_59082cff45f11",
    "title": "Content - Hero Slider",
    "fields": [
        {
            "key": "field_590fd3ee88f93",
            "label": "Slider",
            "name": "",
            "type": "tab",
            "instructions": "",
            "required": 0,
            "conditional_logic": 0,
            "wrapper": {
                "width": "",
                "class": "",
                "id": ""
            },
            "placement": "top",
            "endpoint": 0
        },
        {
            "key": "field_590fd40388f94",
            "label": "Slide category",
            "name": "dcf_slide_category",
            "type": "taxonomy",
            "instructions": "Select the category where this slide belongs.",
            "required": 1,
            "conditional_logic": 0,
            "wrapper": {
                "width": "",
                "class": "",
                "id": ""
            },
            "taxonomy": "slider_cat",
            "field_type": "multi_select",
            "allow_null": 0,
            "add_term": 1,
            "save_terms": 1,
            "load_terms": 1,
            "return_format": "object",
            "multiple": 0
        },
        {
            "key": "field_590fcefd0478b",
            "label": "Image",
            "name": "",
            "type": "tab",
            "instructions": "",
            "required": 0,
            "conditional_logic": 0,
            "wrapper": {
                "width": "",
                "class": "",
                "id": ""
            },
            "placement": "top",
            "endpoint": 0
        },
        {
            "key": "field_590fce890478a",
            "label": "Slide image",
            "name": "dcf_slide_image",
            "type": "image",
            "instructions": "Add and crop image.",
            "required": 1,
            "conditional_logic": 0,
            "wrapper": {
                "width": "",
                "class": "",
                "id": ""
            },
            "return_format": "array",
            "preview_size": "thumbnail",
            "library": "all",
            "min_width": 1800,
            "min_height": 700,
            "min_size": "",
            "max_width": 3000,
            "max_height": 3000,
            "max_size": "",
            "mime_types": ".jpg, .png, .jpeg"
        },
        {
            "key": "field_590fcf080478c",
            "label": "Content",
            "name": "",
            "type": "tab",
            "instructions": "",
            "required": 0,
            "conditional_logic": 0,
            "wrapper": {
                "width": "",
                "class": "",
                "id": ""
            },
            "placement": "top",
            "endpoint": 0
        },
        {
            "key": "field_5bc8039f4a7fe",
            "label": "slide title",
            "name": "dcf_slide_title",
            "type": "text",
            "instructions": "",
            "required": 0,
            "conditional_logic": 0,
            "wrapper": {
                "width": "",
                "class": "",
                "id": ""
            },
            "default_value": "",
            "placeholder": "",
            "prepend": "",
            "append": "",
            "maxlength": ""
        },
        {
            "key": "field_590fcf310478d",
            "label": "Slide caption",
            "name": "dcf_slide_caption",
            "type": "wysiwyg",
            "instructions": "Leave blank to disable.",
            "required": 0,
            "conditional_logic": 0,
            "wrapper": {
                "width": "",
                "class": "",
                "id": ""
            },
            "default_value": "",
            "tabs": "all",
            "toolbar": "full",
            "media_upload": 1,
            "delay": 0
        },
        {
            "key": "field_590ffd22c66ef",
            "label": "Link",
            "name": "",
            "type": "tab",
            "instructions": "",
            "required": 0,
            "conditional_logic": 0,
            "wrapper": {
                "width": "",
                "class": "",
                "id": ""
            },
            "placement": "top",
            "endpoint": 0
        },
        {
            "key": "field_590ff7c56e787",
            "label": "Slide link",
            "name": "dcf_slide_link",
            "type": "select",
            "instructions": "Add a link around whole slide or add as a button.",
            "required": 0,
            "conditional_logic": 0,
            "wrapper": {
                "width": "",
                "class": "",
                "id": ""
            },
            "choices": {
                "none": "No link",
                "slide": "Whole slide",
                "button": "Button link(s)"
            },
            "default_value": [
                "none"
            ],
            "allow_null": 0,
            "multiple": 0,
            "ui": 0,
            "ajax": 0,
            "return_format": "value",
            "placeholder": ""
        },
        {
            "key": "field_590ff8026e788",
            "label": "Slide link URL",
            "name": "dcf_slide_link_url",
            "type": "link_picker",
            "instructions": "Paste the link URL here.",
            "required": 0,
            "conditional_logic": [
                [
                    {
                        "field": "field_590ff7c56e787",
                        "operator": "==",
                        "value": "slide"
                    }
                ]
            ],
            "wrapper": {
                "width": "",
                "class": "",
                "id": ""
            }
        },
        {
            "key": "field_5bceb48827c36",
            "label": "Multiple Links",
            "name": "dcf_slide_multiple_links",
            "type": "repeater",
            "instructions": "",
            "required": 0,
            "conditional_logic": [
                [
                    {
                        "field": "field_590ff7c56e787",
                        "operator": "==",
                        "value": "button"
                    }
                ]
            ],
            "wrapper": {
                "width": "",
                "class": "",
                "id": ""
            },
            "collapsed": "",
            "min": 0,
            "max": 0,
            "layout": "table",
            "button_label": "",
            "sub_fields": [
                {
                    "key": "field_5bceb50227c37",
                    "label": "Button Type",
                    "name": "button_type",
                    "type": "button_group",
                    "instructions": "",
                    "required": 0,
                    "conditional_logic": 0,
                    "wrapper": {
                        "width": "",
                        "class": "",
                        "id": ""
                    },
                    "choices": {
                        "quote": "Get a quote form popup",
                        "callback": "Callback form slide out",
                        "custom": "Custom link"
                    },
                    "allow_null": 0,
                    "default_value": "",
                    "layout": "horizontal",
                    "return_format": "value"
                },
                {
                    "key": "field_5bceb53027c38",
                    "label": "Link URL",
                    "name": "link_url",
                    "type": "link_picker",
                    "instructions": "",
                    "required": 0,
                    "conditional_logic": [
                        [
                            {
                                "field": "field_5bceb50227c37",
                                "operator": "==",
                                "value": "custom"
                            }
                        ]
                    ],
                    "wrapper": {
                        "width": "",
                        "class": "",
                        "id": ""
                    }
                }
            ]
        },
        {
            "key": "field_5bc68eae86c70",
            "label": "Design",
            "name": "",
            "type": "tab",
            "instructions": "",
            "required": 0,
            "conditional_logic": 0,
            "wrapper": {
                "width": "",
                "class": "",
                "id": ""
            },
            "placement": "top",
            "endpoint": 0
        },
        {
            "key": "field_5bc805f632acd",
            "label": "Center Align Content",
            "name": "dcf_slide_center_align_content",
            "type": "true_false",
            "instructions": "",
            "required": 0,
            "conditional_logic": 0,
            "wrapper": {
                "width": "",
                "class": "",
                "id": ""
            },
            "message": "",
            "default_value": 0,
            "ui": 1,
            "ui_on_text": "",
            "ui_off_text": ""
        },
        {
            "key": "field_5bc68e8586c6f",
            "label": "Float Content",
            "name": "dcf_slide_float_content",
            "type": "radio",
            "instructions": "",
            "required": 0,
            "conditional_logic": 0,
            "wrapper": {
                "width": "",
                "class": "",
                "id": ""
            },
            "choices": {
                "left": "Float left",
                "center": "Center align",
                "right": "Float right"
            },
            "allow_null": 0,
            "other_choice": 0,
            "save_other_choice": 0,
            "default_value": "",
            "layout": "vertical",
            "return_format": "value"
        },
        {
            "key": "field_5bc68f7586c72",
            "label": "Add background box",
            "name": "dcf_slide_add_background_box",
            "type": "true_false",
            "instructions": "",
            "required": 0,
            "conditional_logic": 0,
            "wrapper": {
                "width": "",
                "class": "",
                "id": ""
            },
            "message": "",
            "default_value": 0,
            "ui": 1,
            "ui_on_text": "",
            "ui_off_text": ""
        },
        {
            "key": "field_5bc68f5386c71",
            "label": "Text Colour",
            "name": "dcf_slide_text_colour",
            "type": "radio",
            "instructions": "",
            "required": 0,
            "conditional_logic": [
                [
                    {
                        "field": "field_5bc68f7586c72",
                        "operator": "!=",
                        "value": "1"
                    }
                ]
            ],
            "wrapper": {
                "width": "",
                "class": "",
                "id": ""
            },
            "choices": {
                "white": "White text",
                "dark": "Dark text"
            },
            "allow_null": 0,
            "other_choice": 0,
            "save_other_choice": 0,
            "default_value": "",
            "layout": "vertical",
            "return_format": "value"
        },
        {
            "key": "field_590ff294150cc",
            "label": "Slide overlay",
            "name": "dcf_slide_overlay",
            "type": "true_false",
            "instructions": "Include overlay between image & content.",
            "required": 0,
            "conditional_logic": 0,
            "wrapper": {
                "width": "",
                "class": "",
                "id": ""
            },
            "message": "",
            "default_value": 0,
            "ui": 1,
            "ui_on_text": "",
            "ui_off_text": ""
        }
    ],
    "location": [
        [
            {
                "param": "post_type",
                "operator": "==",
                "value": "sliders"
            }
        ]
    ],
    "menu_order": 0,
    "position": "normal",
    "style": "default",
    "label_placement": "left",
    "instruction_placement": "label",
    "hide_on_screen": [
        "the_content",
        "excerpt",
        "custom_fields",
        "discussion",
        "comments",
        "slug",
        "author",
        "format",
        "page_attributes",
        "featured_image",
        "categories",
        "tags",
        "send-trackbacks"
    ],
    "active": 1,
    "description": "- POST TYPE - Sliders",
    "modified": 1541044079
}