{
    "key": "group_5be3ac18a5db5",
    "title": "Archived - Events",
    "fields": [
        {
            "key": "field_5be3ac2454096",
            "label": "Archived",
            "name": "dcf_archived",
            "type": "radio",
            "instructions": "",
            "required": 0,
            "conditional_logic": 0,
            "wrapper": {
                "width": "",
                "class": "",
                "id": ""
            },
            "choices": {
                "current": "Current Events",
                "past-event": "Past Events"
            },
            "allow_null": 0,
            "other_choice": 0,
            "default_value": "current",
            "layout": "horizontal",
            "return_format": "value",
            "save_other_choice": 0
        }
    ],
    "location": [
        [
            {
                "param": "post_type",
                "operator": "==",
                "value": "events"
            }
        ]
    ],
    "menu_order": 0,
    "position": "side",
    "style": "default",
    "label_placement": "top",
    "instruction_placement": "label",
    "hide_on_screen": "",
    "active": 1,
    "description": "",
    "modified": 1541648544
}